package loyalty

import loyalty.domains.Card
import loyalty.domains.Provider
import loyalty.domains.TicketLine
import loyalty.domains.Product
import loyalty.domains.Customer
import loyalty.domains.Gender
import loyalty.domains.Price
import loyalty.domains.Ligneop
import loyalty.domains.Ticket
import loyalty.domains.Currency

rule "ticketTotal"
	ruleflow-group "group2"
	no-loop true
	dialect "mvel"
	when
		zz : Float( ) from accumulate ( TicketLine( ltot : lineTotal),
			init( Float res = new Float(0.0) ),
			action( res = res + ltot ),
			reverse( res = res - ltot ),
			result( res )
) 
		tt : Ticket( )
	then
		System.out.println("Ticlettotal="+zz.class);
		//Float toto = new Float(ticketTotal);
		tt.setAmount( zz );
		update( tt );
end


rule "op_pampers"
	ruleflow-group "group1"
	dialect "mvel"
	when
		pp : Product( name == "Pampers" )
		tt : TicketLine( product == pp , ln : lineTotal, op == null , qq : quantity)
	then
		Ligneop oop = new Ligneop();
		oop.setNomOP( "Pampers 20%" );
		oop.setMontantReduction( ln*0.2 );
		
		insert( oop );
		tt.setOp( oop );
		tt.setLineTotal( ln-oop.montantReduction );
		update( tt );
end


rule "op_evian"
	ruleflow-group "group1"
	dialect "mvel"
	when
		pp : Product( name == "Evian" )
		tt : TicketLine( product == pp , ln : lineTotal, op == null , qq : quantity)
	then
		Ligneop oop = new Ligneop();
		oop.setNomOP( "Evian 50%" );
		oop.setMontantReduction( ln*0.5 );
		insert( oop );
		tt.setOp( oop );
		tt.setLineTotal( (ln-oop.montantReduction) );
		update( tt );
end


rule "calculatelineTotal"
	ruleflow-group "group0"
	no-loop true
	dialect "mvel"
	when
		mprice : Price( price != null )
		pp : Product( price == mprice )
		tt : TicketLine( q : quantity, product == pp )
	then
		tt.setLineTotal( mprice.price*new Long(q) );
		tt.setPrice( mprice.price );
		update( tt );
end
